﻿[{
        "Selected" : true,
        "Text" : "Select",
        "Value" : ""
    }, {
        "Selected" : false,
        "Text" : "Delhi University",
        "Value" : "3219"
    }, {
        "Selected" : false,
        "Text" : "Indian Institute of Management - Ahmadabad ",
        "Value" : "3220"
    }, {
        "Selected" : false,
        "Text" : "Indian Institute of Science — Bangalore ",
        "Value" : "3212"
    }, {
        "Selected" : false,
        "Text" : "Indian Institute of Science, Bangalore ",
        "Value" : "177"
    }, {
        "Selected" : false,
        "Text" : "Indian Institute of Technology Bombay",
        "Value" : "3214"
    }, {
        "Selected" : false,
        "Text" : "Indian Institute of Technology Delhi ",
        "Value" : "3216"
    }, {
        "Selected" : false,
        "Text" : "Indian Institute of Technology Kanpur ",
        "Value" : "3213"
    }, {
        "Selected" : false,
        "Text" : "Indian Institute of Technology Kharagpur",
        "Value" : "3215"
    }, {
        "Selected" : false,
        "Text" : "Indian Institute of Technology Madras",
        "Value" : "3217"
    }, {
        "Selected" : false,
        "Text" : "Indian Institute of Technology Roorkee",
        "Value" : "3218"
    }, {
        "Selected" : false,
        "Text" : "Indian Institute of Technology, Kharagpur",
        "Value" : "131"
    }, {
        "Selected" : false,
        "Text" : "Language Institute",
        "Value" : "3431"
    }, {
        "Selected" : false,
        "Text" : "Not Listed University",
        "Value" : "3380"
    }, {
        "Selected" : false,
        "Text" : "University of Calcutta",
        "Value" : "349"
    }
]