﻿[
    {
        "nameAr": "سلفة سيارة",
        "nameEn": "CAR LOAN",
        "balance": "27760",
        "installment": null,
        "paid": "22240",
        "value": "50000",
        "status": "Active",
        "loanSequence": null,
        "typeCode": null,
        "jobNumber": null,
        "PaymentOrderNumber": null
    },
    {
        "nameAr": "سلفة سيارة",
        "nameEn": "CAR LOAN",
        "balance": "0",
        "installment": null,
        "paid": "35382",
        "value": "35382",
        "status": " Completed",
        "loanSequence": null,
        "typeCode": null,
        "jobNumber": null,
        "PaymentOrderNumber": null
    },
    {
        "nameAr": "متفرقة1",
        "nameEn": "Other LOAN",
        "balance": "0",
        "installment": null,
        "paid": "53965",
        "value": "53965",
        "status": " Completed",
        "loanSequence": null,
        "typeCode": null,
        "jobNumber": null,
        "PaymentOrderNumber": null
    }
]