﻿{
    "Requests": [
        {
            "<Title>k__BackingField": null,
            "<JobNo>k__BackingField": "20154",
            "<JobTitle>k__BackingField": "Project Manager",
            "<JobTitleAr>k__BackingField": "مدير مشروع",
            "<EmpName>k__BackingField": "AYMAN MOHAMED ELSAYED  ABDELMAGID",
            "<EmpNameAr>k__BackingField": "ايمن محمد السيد  عبدالمجيد",
            "<DateofJoin>k__BackingField": "2007-05-26T00:00:00",
            "<Nationality>k__BackingField": " Egypt",
            "<NationalityAr>k__BackingField": "مصري",
            "<Grade>k__BackingField": "راتب مقطوع",
            "<InstituteDepartmentUnit>k__BackingField": "Project Management Section",
            "<InstituteDepartmentUnitAr>k__BackingField": "قسم إدارة المشاريع",
            "<QatarID>k__BackingField": "26881802510",
            "<LeaveType>k__BackingField": "Annual Leave without allow\r\n",
            "<LeaveSequence>k__BackingField": "2141528",
            "<FirstDayofLeave>k__BackingField": "2017-08-20T00:00:00",
            "<LastDayofLeave>k__BackingField": "2017-08-31T00:00:00",
            "<NumberofDays>k__BackingField": 12,
            "<DutyCommencingDate>k__BackingField": "2017-09-01T00:00:00",
            "<ReturnAsPlannedDate>k__BackingField": true,
            "<ActualLeaveDays>k__BackingField": 12,
            "<Comments>k__BackingField": null,
            "<DirectManager>k__BackingField": "QSEC\\n.mohammad",
            "<ExtendLeave>k__BackingField": false,
            "<ExtendedDays>k__BackingField": 0,
            "<ExtendLeaveCode>k__BackingField": null,
            "<CutLeave>k__BackingField": false,
            "<CutDays>k__BackingField": 0,
            "<AddSickLeave>k__BackingField": false,
            "<SickLeaveStartDate>k__BackingField": "1900-01-01T00:00:00",
            "<SickLeaveEndDate>k__BackingField": "1900-01-01T00:00:00",
            "<SickLeaveNoOfDays>k__BackingField": 0,
            "<AddCompassionateLeave>k__BackingField": false,
            "<CompassionateLeaveStartDate>k__BackingField": "1900-01-01T00:00:00",
            "<CompassionateLeaveEndDate>k__BackingField": "1900-01-01T00:00:00",
            "<CompassionateLeaveNoOfDays>k__BackingField": 0,
            "<LastPaymentDate>k__BackingField": "2017-02-03T00:00:00",
            "<LeaveTypeAr>k__BackingField": "اجازة دورية بدون منحه",
            "<ExtendLeaveCodeAr>k__BackingField": null,
            "<LeaveSequenceAr>k__BackingField": null,
            "<Actions>k__BackingField": null,
            "<RequiredHRManager>k__BackingField": false,
            "<RequiredMinister>k__BackingField": false,
            "<HRDatabaseStatus>k__BackingField": true,
            "<HRDatabaseMessageAr>k__BackingField": "Request Saved Successfully",
            "<HRDatabaseMessageEn>k__BackingField": "Request Saved Successfully",
            "<Permissions>k__BackingField": null,
            "<ID>k__BackingField": 275,
            "<CreationDate>k__BackingField": "2017-09-11T07:11:08",
            "<ModificationDate>k__BackingField": "2017-09-12T11:55:39",
            "<CreatedBy>k__BackingField": "qsec\\a.alsayed",
            "<ModifiedBy>k__BackingField": "qsec\\t.almuhannadi",
            "<Attachments>k__BackingField": null,
            "<TableName>k__BackingField": "LeaveReturnRequest",
            "<HasAttachments>k__BackingField": false,
            "<StatusEn>k__BackingField": "Approved",
            "<StatusAr>k__BackingField": "تم قبول الطلب"
        }
    ],
    "Error": "",
    "Count": 1
}