﻿[
    {
        "nameEn": "Annual Leave with allow\r\n",
        "nameAR": "أجازة دورية مع منحه",
        "balance": "45",
        "requireEndDate": true,
        "leaveCode": "1",
        "requiredAttachment": false
    },
    {
        "nameEn": "Un-paid Leave\r\n",
        "nameAR": "اجازة بلاراتب",
        "balance": null,
        "requireEndDate": false,
        "leaveCode": "2",
        "requiredAttachment": false
    },
    {
        "nameEn": "Miscellaneous Leave \r\n",
        "nameAR": "غياب متفرق",
        "balance": null,
        "requireEndDate": true,
        "leaveCode": "3",
        "requiredAttachment": false
    },
    {
        "nameEn": "Hajj Leave\r\n",
        "nameAR": "اجازة حج",
        "balance": null,
        "requireEndDate": true,
        "leaveCode": "4",
        "requiredAttachment": true
    },
    {
        "nameEn": "Escort Leave\r\n",
        "nameAR": "اجازة مرافقة",
        "balance": null,
        "requireEndDate": true,
        "leaveCode": "8",
        "requiredAttachment": false
    },
    {
        "nameEn": "Casual Leave\r\n",
        "nameAR": "اجازة عارضة",
        "balance": "7",
        "requireEndDate": false,
        "leaveCode": "10",
        "requiredAttachment": false
    },
    {
        "nameEn": "Un-paid Secondment  \r\n",
        "nameAR": "اعارة بدون راتب",
        "balance": null,
        "requireEndDate": true,
        "leaveCode": "21",
        "requiredAttachment": false
    },
    {
        "nameEn": "Special Leave with pay\r\n",
        "nameAR": "اجازة خاصة براتب",
        "balance": null,
        "requireEndDate": true,
        "leaveCode": "23",
        "requiredAttachment": false
    },
    {
        "nameEn": "Examination Leave\r\n",
        "nameAR": "اجازة امتحان",
        "balance": null,
        "requireEndDate": true,
        "leaveCode": "25",
        "requiredAttachment": true
    },
    {
        "nameEn": "Marriage Leav",
        "nameAR": "اجازة زواج",
        "balance": null,
        "requireEndDate": true,
        "leaveCode": "26",
        "requiredAttachment": true
    },
    {
        "nameEn": "Sick Leave\r\n",
        "nameAR": "اجازة مرضية",
        "balance": null,
        "requireEndDate": false,
        "leaveCode": "28",
        "requiredAttachment": true
    },
    {
        "nameEn": "Annual Leave without allow\r\n",
        "nameAR": "أجازة دورية بدون منحه",
        "balance": "45",
        "requireEndDate": true,
        "leaveCode": "29",
        "requiredAttachment": false
    },
    {
        "nameEn": "Compassionate Leave \r\n",
        "nameAR": "اجازة تعاطفيه",
        "balance": null,
        "requireEndDate": false,
        "leaveCode": "30",
        "requiredAttachment": true
    },
    {
        "nameEn": "Public Holiday",
        "nameAR": "عطله رسمية",
        "balance": null,
        "requireEndDate": true,
        "leaveCode": "32",
        "requiredAttachment": false
    },
    {
        "nameEn": "Scolarship",
        "nameAR": "بعثة دراسية",
        "balance": null,
        "requireEndDate": true,
        "leaveCode": "33",
        "requiredAttachment": false
    },
    {
        "nameEn": "accompany Medical Treatment leave",
        "nameAR": "إجازة مرافقة علاج",
        "balance": null,
        "requireEndDate": true,
        "leaveCode": "34",
        "requiredAttachment": true
    },
    {
        "nameEn": "Medical Committee Sick Leave",
        "nameAR": "علاج بقرار اللجنة الطبية",
        "balance": null,
        "requireEndDate": true,
        "leaveCode": "35",
        "requiredAttachment": true
    },
    {
        "nameEn": "Local Leave",
        "nameAR": "إجازة محلية",
        "balance": null,
        "requireEndDate": true,
        "leaveCode": "37",
        "requiredAttachment": false
    },
    {
        "nameEn": "Study Leave",
        "nameAR": "إجازة دراسية",
        "balance": null,
        "requireEndDate": true,
        "leaveCode": "36",
        "requiredAttachment": false
    },
    {
        "nameEn": "Half-Pay Sick Leave",
        "nameAR": "علاج بنصف راتب",
        "balance": null,
        "requireEndDate": true,
        "leaveCode": "40",
        "requiredAttachment": true
    },
    {
        "nameEn": "Military service",
        "nameAR": "الخدمة العسكرية",
        "balance": null,
        "requireEndDate": true,
        "leaveCode": "41",
        "requiredAttachment": true
    },
    {
        "nameEn": "Overtime Vacation",
        "nameAR": "اجازة بدل عمل إضافى",
        "balance": "0",
        "requireEndDate": true,
        "leaveCode": "42",
        "requiredAttachment": true
    }
]